# FR-trace starting at Tue Apr 20 17:44:06 2021
################# CONFIG #################
# slot=9000
# samples=5000
# threshold=100
# idle=500
# minlen=500
# runs=60000
# pdathreads=3
# nmonitored=1
#   monitor0=/usr/local/lib/libcrypto.so 770062 0xbc00e
# nevicted=0
# npdatargets=1
#   target0=/usr/local/lib/libcrypto.so 750148 0xb7244
# affinity=all
############## SYSTEM INFO ###############
# mastik_version=
# sysname=Linux
# nodename=0b12265572f4
# release=5.8.0-50-generic
# version=#56~20.04.1-Ubuntu SMP Mon Apr 12 21:46:35 UTC 2021
# machine=x86_64
################## DATA ##################
# run=1
# datapoints=5000
42 
608 
44 
44 
44 
44 
42 
46 
42 
246 
246 
246 
246 
246 
242 
248 
244 
244 
296 
242 
224 
246 
242 
244 
248 
244 
550 
242 
222 
242 
246 
244 
248 
248 
248 
246 
244 
246 
242 
228 
244 
248 
242 
242 
248 
242 
246 
246 
244 
244 
244 
282 
246 
224 
246 
248 
244 
244 
40 
44 
48 
48 
44 
42 
44 
44 
244 
244 
244 
246 
246 
244 
244 
242 
246 
246 
242 
248 
240 
250 
230 
248 
246 
242 
226 
242 
224 
250 
244 
244 
248 
316 
434 
246 
228 
244 
244 
242 
244 
244 
666 
246 
244 
244 
248 
242 
240 
244 
246 
244 
254 
246 
244 
242 
44 
42 
44 
44 
46 
46 
42 
42 
244 
244 
0 
0 
0 
218 
246 
340 
250 
246 
242 
636 
240 
244 
246 
238 
244 
222 
244 
240 
244 
238 
244 
242 
240 
240 
242 
240 
214 
246 
244 
242 
242 
244 
246 
242 
352 
222 
228 
240 
244 
242 
242 
240 
578 
242 
222 
246 
44 
40 
42 
42 
42 
242 
244 
246 
242 
242 
238 
244 
246 
246 
244 
242 
242 
242 
244 
246 
244 
306 
240 
226 
240 
238 
242 
238 
242 
574 
330 
222 
242 
240 
242 
244 
246 
246 
242 
244 
244 
242 
244 
240 
244 
240 
244 
224 
244 
242 
244 
246 
40 
44 
40 
54 
170 
40 
242 
238 
242 
242 
534 
246 
222 
246 
244 
244 
244 
242 
242 
242 
242 
242 
244 
240 
244 
244 
242 
242 
242 
242 
242 
244 
240 
242 
244 
224 
244 
222 
242 
246 
246 
246 
242 
444 
240 
222 
242 
242 
244 
222 
244 
678 
244 
40 
44 
42 
42 
44 
40 
242 
246 
242 
246 
242 
242 
238 
246 
242 
236 
242 
222 
240 
246 
244 
244 
242 
442 
244 
218 
244 
248 
242 
242 
242 
666 
206 
236 
242 
240 
244 
244 
242 
240 
240 
244 
238 
244 
248 
242 
242 
242 
248 
244 
242 
244 
44 
44 
40 
44 
40 
40 
40 
240 
244 
248 
242 
242 
590 
246 
224 
244 
240 
244 
244 
244 
242 
224 
242 
242 
246 
240 
240 
214 
244 
248 
242 
248 
242 
240 
244 
244 
244 
334 
242 
226 
242 
244 
240 
246 
242 
564 
220 
226 
238 
242 
242 
242 
240 
42 
42 
40 
42 
42 
42 
42 
40 
42 
238 
246 
242 
246 
242 
242 
244 
244 
300 
240 
228 
240 
242 
242 
246 
246 
526 
242 
204 
228 
246 
242 
240 
244 
200 
240 
244 
246 
244 
244 
244 
242 
240 
240 
244 
244 
242 
242 
240 
248 
240 
232 
244 
222 
240 
244 
38 
40 
40 
42 
42 
42 
44 
42 
44 
242 
242 
694 
242 
242 
240 
224 
240 
242 
244 
246 
242 
244 
240 
238 
244 
242 
242 
242 
226 
240 
224 
244 
246 
244 
242 
242 
424 
244 
226 
240 
240 
246 
244 
204 
662 
244 
228 
232 
242 
244 
244 
240 
242 
238 
242 
44 
40 
40 
42 
42 
244 
240 
244 
220 
242 
238 
240 
240 
248 
342 
244 
224 
248 
242 
246 
242 
244 
590 
244 
224 
242 
220 
244 
236 
244 
240 
242 
246 
242 
240 
240 
240 
244 
244 
244 
242 
244 
246 
238 
242 
244 
238 
596 
244 
218 
240 
242 
38 
42 
40 
40 
40 
40 
244 
244 
242 
244 
244 
244 
242 
242 
244 
244 
244 
240 
246 
246 
248 
240 
240 
244 
242 
240 
242 
242 
272 
246 
224 
244 
242 
242 
240 
240 
502 
242 
224 
244 
242 
244 
244 
242 
244 
242 
242 
244 
244 
244 
238 
242 
240 
44 
42 
42 
42 
42 
244 
242 
242 
220 
246 
222 
246 
246 
240 
240 
242 
464 
242 
224 
242 
244 
242 
244 
242 
694 
244 
246 
242 
244 
240 
242 
242 
246 
246 
242 
240 
244 
242 
244 
242 
244 
224 
242 
220 
240 
244 
244 
242 
242 
434 
244 
218 
44 
40 
42 
40 
42 
44 
42 
226 
240 
246 
242 
240 
242 
242 
244 
246 
244 
246 
244 
242 
246 
242 
240 
242 
220 
240 
242 
246 
240 
242 
364 
244 
224 
246 
240 
246 
240 
242 
596 
244 
224 
246 
244 
242 
240 
244 
246 
242 
244 
244 
240 
240 
244 
244 
42 
40 
42 
40 
42 
38 
42 
42 
244 
340 
246 
220 
242 
242 
246 
242 
240 
566 
242 
222 
244 
244 
244 
242 
240 
242 
244 
244 
240 
246 
242 
242 
240 
242 
242 
242 
242 
244 
244 
242 
242 
240 
296 
242 
220 
244 
244 
244 
240 
244 
502 
244 
226 
246 
240 
44 
40 
44 
42 
244 
242 
246 
244 
244 
246 
242 
242 
248 
242 
244 
250 
242 
242 
244 
244 
226 
244 
224 
240 
240 
244 
242 
248 
464 
242 
224 
240 
244 
242 
240 
242 
686 
242 
242 
242 
240 
242 
242 
246 
244 
240 
244 
244 
244 
244 
244 
42 
44 
42 
42 
42 
240 
242 
242 
244 
242 
440 
242 
222 
244 
242 
246 
244 
242 
648 
244 
236 
240 
242 
244 
244 
240 
238 
240 
242 
244 
246 
242 
244 
244 
244 
240 
240 
244 
246 
242 
240 
242 
244 
334 
246 
222 
246 
240 
240 
240 
238 
578 
246 
40 
40 
40 
42 
42 
40 
42 
244 
246 
246 
238 
242 
244 
244 
242 
242 
246 
244 
238 
242 
242 
246 
242 
330 
242 
226 
246 
242 
244 
244 
242 
570 
242 
220 
244 
244 
240 
242 
246 
244 
244 
242 
242 
242 
248 
244 
244 
240 
240 
242 
242 
244 
244 
240 
40 
40 
42 
40 
44 
42 
242 
240 
244 
246 
506 
244 
222 
246 
246 
242 
244 
238 
240 
246 
244 
240 
246 
242 
244 
240 
244 
244 
242 
242 
238 
244 
246 
244 
246 
224 
242 
224 
242 
244 
238 
244 
238 
456 
242 
224 
244 
244 
242 
242 
242 
700 
244 
242 
42 
42 
42 
42 
42 
242 
244 
244 
244 
244 
244 
244 
246 
242 
226 
240 
222 
240 
244 
240 
240 
242 
428 
240 
704 
246 
246 
244 
242 
240 
674 
242 
230 
242 
244 
242 
242 
244 
244 
242 
242 
246 
242 
242 
240 
242 
246 
242 
244 
244 
240 
246 
44 
42 
40 
38 
42 
224 
244 
246 
238 
242 
242 
596 
246 
222 
240 
240 
244 
240 
244 
244 
244 
244 
246 
238 
238 
240 
244 
246 
242 
242 
240 
240 
242 
244 
244 
242 
362 
238 
220 
242 
244 
244 
244 
244 
596 
244 
224 
240 
240 
240 
246 
42 
42 
40 
42 
42 
42 
40 
244 
242 
238 
240 
242 
246 
244 
242 
244 
246 
244 
260 
244 
226 
242 
242 
240 
246 
242 
512 
244 
222 
242 
242 
244 
246 
240 
704 
242 
244 
240 
244 
248 
238 
242 
242 
240 
242 
242 
242 
244 
250 
244 
244 
242 
244 
40 
42 
40 
40 
42 
244 
460 
246 
222 
244 
242 
244 
244 
242 
698 
242 
242 
242 
242 
248 
242 
242 
246 
246 
246 
240 
244 
246 
244 
244 
246 
222 
242 
222 
246 
242 
240 
242 
240 
260 
262 
224 
240 
248 
244 
246 
242 
644 
244 
226 
242 
242 
44 
42 
40 
42 
42 
42 
244 
242 
242 
240 
244 
246 
246 
248 
224 
242 
244 
242 
246 
240 
356 
242 
222 
242 
240 
242 
246 
246 
598 
244 
232 
242 
242 
244 
240 
242 
244 
244 
242 
248 
242 
238 
244 
240 
240 
244 
244 
242 
246 
242 
240 
240 
42 
42 
42 
42 
42 
42 
240 
242 
242 
572 
244 
224 
242 
242 
244 
246 
244 
244 
244 
242 
240 
244 
240 
244 
246 
240 
240 
242 
244 
246 
244 
248 
242 
242 
268 
244 
224 
250 
242 
242 
240 
240 
498 
240 
224 
244 
246 
246 
242 
242 
242 
244 
44 
40 
40 
42 
44 
42 
242 
240 
244 
240 
242 
244 
242 
242 
246 
224 
242 
224 
242 
244 
240 
242 
1760 
424 
202 
526 
1066 
414 
4350 
2186 
244 
240 
244 
240 
244 
242 
238 
240 
244 
242 
244 
244 
244 
244 
242 
244 
246 
240 
220 
242 
224 
244 
244 
244 
244 
244 
434 
244 
40 
42 
42 
42 
40 
38 
44 
244 
242 
246 
242 
246 
242 
244 
240 
242 
244 
242 
246 
244 
240 
242 
242 
244 
244 
222 
244 
244 
244 
242 
244 
362 
242 
222 
244 
242 
242 
242 
242 
600 
250 
226 
240 
240 
242 
240 
246 
246 
246 
240 
242 
240 
242 
40 
42 
42 
42 
42 
42 
42 
242 
242 
242 
244 
340 
242 
222 
244 
240 
240 
240 
242 
578 
244 
224 
242 
248 
246 
240 
242 
244 
240 
246 
242 
242 
242 
242 
242 
244 
244 
240 
242 
246 
244 
244 
244 
246 
258 
244 
222 
244 
246 
244 
242 
242 
510 
242 
42 
42 
44 
42 
40 
242 
242 
244 
242 
244 
240 
242 
240 
242 
244 
242 
246 
244 
242 
240 
242 
242 
242 
232 
244 
224 
242 
240 
242 
240 
244 
478 
244 
224 
242 
242 
242 
242 
250 
700 
244 
242 
248 
244 
244 
244 
240 
244 
240 
244 
242 
242 
44 
44 
40 
42 
40 
246 
224 
242 
244 
244 
240 
242 
440 
242 
222 
242 
242 
240 
240 
244 
648 
242 
228 
242 
238 
244 
240 
240 
244 
244 
246 
240 
244 
242 
242 
246 
242 
246 
242 
224 
240 
246 
244 
244 
244 
384 
240 
224 
242 
246 
246 
244 
40 
42 
42 
42 
44 
42 
244 
246 
242 
242 
244 
244 
244 
242 
246 
242 
246 
242 
244 
242 
248 
238 
244 
248 
244 
244 
362 
240 
226 
244 
242 
244 
244 
242 
582 
240 
226 
240 
246 
242 
244 
244 
244 
240 
242 
246 
242 
244 
244 
242 
242 
246 
244 
44 
42 
46 
38 
240 
242 
278 
240 
222 
242 
242 
204 
246 
242 
510 
246 
222 
244 
242 
240 
242 
244 
244 
242 
244 
242 
240 
242 
252 
242 
242 
224 
242 
228 
244 
242 
242 
240 
244 
244 
240 
226 
244 
240 
242 
244 
244 
494 
242 
220 
42 
44 
42 
40 
40 
44 
248 
244 
242 
248 
244 
244 
242 
246 
242 
242 
244 
244 
244 
204 
242 
238 
220 
246 
220 
242 
244 
242 
242 
240 
432 
224 
226 
244 
244 
244 
244 
238 
636 
244 
230 
242 
244 
244 
244 
240 
240 
242 
244 
246 
244 
242 
42 
42 
40 
42 
240 
222 
242 
238 
240 
242 
242 
362 
246 
224 
242 
246 
242 
240 
244 
618 
240 
232 
246 
238 
244 
202 
244 
242 
242 
244 
240 
244 
242 
244 
244 
240 
244 
244 
238 
244 
242 
242 
242 
240 
362 
244 
222 
246 
238 
242 
42 
40 
40 
44 
40 
40 
244 
240 
242 
244 
240 
242 
244 
244 
242 
244 
244 
244 
246 
240 
244 
246 
238 
242 
242 
228 
238 
258 
246 
222 
244 
242 
302 
240 
244 
498 
242 
224 
242 
242 
242 
244 
246 
244 
244 
242 
244 
240 
244 
244 
242 
242 
242 
42 
40 
44 
42 
42 
242 
244 
256 
246 
224 
246 
242 
244 
246 
244 
492 
242 
226 
244 
244 
248 
242 
242 
244 
240 
244 
246 
244 
248 
242 
242 
244 
242 
240 
246 
242 
244 
242 
246 
246 
218 
246 
226 
244 
242 
242 
242 
244 
398 
254 
226 
42 
42 
42 
42 
42 
40 
40 
242 
244 
204 
240 
242 
246 
244 
240 
242 
242 
240 
246 
244 
244 
202 
242 
240 
224 
244 
242 
244 
240 
240 
366 
244 
222 
246 
246 
238 
238 
242 
620 
244 
228 
242 
220 
246 
242 
246 
242 
242 
242 
240 
242 
238 
244 
44 
42 
38 
42 
42 
42 
242 
242 
244 
246 
340 
240 
222 
242 
244 
244 
242 
240 
566 
244 
222 
244 
242 
246 
242 
242 
246 
244 
242 
244 
244 
240 
242 
242 
244 
240 
244 
242 
244 
242 
242 
244 
242 
272 
246 
222 
242 
246 
206 
242 
242 
508 
242 
222 
42 
42 
42 
40 
40 
42 
244 
242 
244 
244 
246 
242 
244 
246 
244 
240 
246 
242 
244 
242 
242 
244 
268 
238 
220 
246 
244 
244 
246 
246 
502 
238 
224 
246 
242 
242 
240 
242 
700 
238 
242 
242 
248 
246 
242 
242 
244 
246 
244 
240 
242 
242 
244 
42 
40 
42 
38 
40 
42 
244 
222 
244 
238 
430 
244 
224 
248 
244 
240 
242 
242 
640 
244 
250 
244 
242 
240 
238 
240 
220 
244 
244 
244 
242 
206 
246 
244 
242 
246 
246 
222 
204 
240 
246 
242 
244 
370 
244 
222 
246 
242 
244 
240 
248 
606 
42 
42 
40 
40 
42 
42 
42 
244 
244 
242 
242 
244 
244 
244 
242 
246 
242 
240 
242 
240 
242 
246 
244 
244 
346 
242 
222 
242 
242 
242 
246 
244 
518 
212 
222 
250 
240 
242 
242 
244 
242 
240 
242 
242 
242 
244 
244 
244 
240 
242 
244 
244 
242 
244 
244 
38 
42 
42 
44 
42 
40 
40 
242 
240 
240 
494 
246 
220 
250 
244 
242 
238 
240 
246 
246 
244 
240 
244 
246 
240 
240 
246 
246 
246 
244 
242 
244 
244 
240 
248 
262 
242 
220 
244 
248 
244 
242 
244 
504 
240 
220 
242 
244 
242 
240 
242 
242 
244 
240 
44 
40 
42 
42 
44 
246 
240 
244 
242 
242 
244 
242 
244 
240 
242 
242 
220 
242 
244 
242 
242 
240 
424 
242 
224 
242 
246 
242 
244 
242 
652 
272 
246 
246 
244 
246 
244 
240 
242 
244 
242 
244 
238 
242 
244 
240 
240 
242 
242 
224 
244 
240 
44 
42 
42 
42 
42 
220 
238 
240 
240 
240 
246 
644 
242 
222 
242 
242 
242 
244 
242 
240 
246 
244 
242 
240 
242 
246 
242 
242 
240 
242 
240 
244 
246 
246 
240 
244 
352 
246 
222 
242 
242 
244 
240 
244 
562 
244 
204 
242 
242 
240 
246 
42 
38 
40 
40 
42 
44 
240 
240 
242 
244 
240 
244 
242 
240 
240 
242 
244 
244 
266 
246 
222 
248 
246 
242 
240 
242 
506 
244 
222 
240 
244 
244 
242 
242 
244 
242 
240 
242 
242 
244 
238 
240 
242 
242 
246 
244 
244 
242 
244 
242 
246 
256 
40 
40 
40 
38 
42 
42 
42 
494 
240 
220 
240 
242 
242 
240 
240 
246 
242 
248 
240 
244 
246 
244 
238 
202 
242 
242 
246 
242 
248 
246 
202 
240 
240 
246 
226 
246 
244 
244 
242 
242 
404 
240 
224 
242 
244 
240 
240 
242 
630 
246 
248 
240 
244 
242 
242 
42 
42 
42 
42 
42 
40 
42 
42 
246 
244 
242 
246 
222 
244 
244 
244 
244 
240 
402 
244 
220 
246 
224 
244 
244 
244 
650 
242 
228 
242 
244 
246 
244 
244 
244 
226 
242 
244 
244 
244 
240 
242 
242 
240 
248 
244 
244 
242 
244 
244 
242 
332 
244 
222 
242 
40 
44 
42 
42 
40 
42 
224 
242 
246 
240 
244 
242 
246 
240 
244 
242 
240 
240 
242 
242 
240 
236 
240 
244 
242 
244 
244 
240 
242 
274 
246 
224 
240 
240 
240 
244 
242 
510 
242 
222 
246 
240 
244 
242 
246 
242 
244 
246 
244 
244 
242 
242 
40 
42 
40 
42 
42 
42 
242 
240 
244 
240 
278 
244 
220 
244 
244 
244 
242 
240 
490 
242 
218 
244 
222 
242 
242 
242 
242 
242 
244 
222 
246 
242 
244 
240 
240 
244 
242 
244 
242 
244 
242 
244 
246 
240 
242 
224 
300 
244 
240 
240 
242 
416 
40 
38 
40 
42 
42 
244 
244 
658 
242 
248 
244 
242 
242 
240 
240 
238 
244 
246 
246 
238 
242 
246 
240 
240 
244 
244 
222 
224 
242 
242 
246 
244 
420 
242 
222 
242 
246 
244 
244 
244 
652 
222 
220 
244 
252 
240 
244 
240 
240 
246 
240 
44 
40 
44 
40 
40 
42 
44 
44 
246 
238 
244 
246 
244 
242 
354 
242 
224 
242 
244 
246 
242 
240 
560 
244 
220 
244 
244 
244 
244 
244 
242 
244 
242 
242 
242 
242 
240 
240 
246 
242 
244 
244 
242 
246 
242 
244 
242 
284 
242 
226 
240 
242 
242 
242 
244 
40 
42 
38 
42 
42 
244 
244 
238 
202 
246 
242 
246 
238 
242 
240 
246 
240 
244 
242 
242 
244 
240 
244 
242 
244 
262 
242 
228 
240 
244 
248 
242 
244 
504 
242 
224 
242 
244 
246 
246 
240 
238 
244 
244 
240 
242 
244 
242 
244 
246 
242 
40 
42 
40 
42 
40 
246 
242 
224 
248 
204 
244 
244 
244 
238 
724 
418 
246 
220 
244 
244 
246 
242 
240 
656 
346 
242 
240 
248 
242 
240 
244 
244 
242 
242 
240 
242 
242 
240 
242 
244 
244 
244 
220 
244 
238 
240 
242 
248 
414 
246 
226 
240 
40 
42 
44 
42 
44 
42 
224 
242 
242 
248 
244 
240 
242 
246 
238 
224 
246 
244 
242 
246 
222 
240 
244 
246 
246 
246 
248 
244 
240 
336 
244 
222 
240 
244 
240 
250 
238 
538 
240 
222 
246 
242 
244 
242 
222 
242 
242 
240 
244 
244 
240 
246 
242 
242 
38 
44 
40 
42 
42 
42 
242 
242 
298 
244 
222 
242 
242 
238 
240 
242 
518 
240 
226 
238 
248 
242 
244 
224 
242 
242 
244 
242 
244 
246 
244 
240 
246 
242 
244 
246 
224 
244 
240 
244 
226 
262 
248 
228 
242 
238 
248 
244 
244 
492 
242 
222 
240 
242 
40 
42 
40 
42 
42 
206 
242 
240 
242 
244 
244 
240 
244 
244 
244 
246 
240 
240 
242 
242 
220 
242 
226 
244 
248 
244 
242 
242 
414 
242 
224 
240 
244 
240 
222 
240 
642 
240 
240 
246 
244 
242 
244 
246 
242 
244 
244 
240 
202 
238 
242 
244 
248 
40 
40 
42 
40 
44 
242 
240 
242 
418 
244 
220 
244 
246 
206 
222 
242 
652 
244 
222 
244 
244 
246 
244 
244 
238 
240 
242 
244 
240 
240 
242 
240 
244 
240 
244 
242 
244 
240 
246 
242 
244 
346 
244 
222 
248 
242 
238 
222 
246 
548 
244 
224 
42 
42 
40 
42 
40 
42 
40 
40 
44 
246 
242 
244 
240 
242 
242 
246 
242 
244 
242 
244 
242 
244 
298 
242 
224 
246 
242 
244 
242 
244 
538 
244 
222 
244 
248 
242 
244 
242 
240 
244 
238 
198 
240 
240 
246 
242 
240 
242 
240 
238 
238 
244 
242 
248 
240 
40 
40 
38 
40 
42 
42 
240 
242 
484 
242 
224 
246 
246 
242 
242 
240 
650 
244 
246 
244 
244 
244 
242 
246 
242 
242 
248 
246 
244 
244 
242 
244 
240 
244 
244 
222 
244 
242 
246 
240 
304 
412 
244 
224 
242 
242 
242 
242 
244 
648 
244 
242 
42 
40 
40 
44 
42 
42 
242 
242 
242 
244 
246 
244 
240 
226 
228 
240 
218 
246 
246 
242 
244 
240 
410 
244 
226 
238 
244 
246 
244 
244 
648 
244 
258 
242 
244 
246 
246 
242 
240 
244 
244 
242 
246 
244 
242 
240 
244 
242 
246 
240 
244 
244 
244 
42 
40 
42 
42 
38 
244 
244 
242 
240 
242 
648 
222 
224 
244 
244 
242 
242 
240 
246 
204 
242 
242 
212 
244 
238 
244 
240 
246 
242 
240 
242 
244 
242 
240 
244 
302 
244 
226 
244 
240 
238 
242 
224 
554 
240 
226 
244 
246 
242 
240 
246 
244 
40 
42 
42 
40 
42 
42 
246 
240 
244 
244 
242 
246 
242 
242 
244 
244 
244 
244 
222 
244 
244 
242 
244 
240 
470 
244 
224 
242 
220 
244 
246 
246 
200 
244 
238 
202 
244 
240 
242 
240 
242 
242 
204 
240 
238 
244 
242 
240 
246 
236 
242 
228 
42 
40 
40 
40 
42 
440 
244 
226 
244 
238 
242 
244 
240 
674 
244 
244 
242 
244 
244 
240 
240 
242 
244 
242 
238 
242 
242 
244 
244 
244 
228 
242 
220 
242 
246 
224 
238 
242 
410 
242 
226 
242 
244 
224 
240 
244 
636 
242 
222 
242 
244 
242 
40 
42 
42 
44 
40 
244 
244 
240 
244 
244 
238 
242 
238 
244 
244 
244 
248 
242 
242 
342 
242 
226 
240 
246 
242 
242 
242 
568 
246 
222 
246 
244 
242 
244 
240 
242 
242 
244 
244 
244 
242 
240 
242 
224 
242 
244 
244 
242 
240 
242 
242 
228 
40 
42 
42 
42 
40 
38 
42 
42 
552 
244 
224 
206 
240 
240 
246 
246 
244 
240 
242 
238 
240 
204 
240 
246 
240 
242 
240 
242 
246 
244 
244 
244 
240 
258 
242 
222 
242 
242 
242 
240 
246 
472 
246 
222 
204 
240 
246 
246 
244 
694 
242 
240 
242 
242 
42 
40 
40 
40 
44 
42 
42 
242 
246 
242 
244 
242 
226 
246 
224 
244 
238 
238 
244 
246 
440 
242 
342 
240 
244 
242 
240 
238 
650 
242 
242 
246 
242 
242 
244 
242 
242 
240 
238 
244 
242 
240 
244 
242 
246 
242 
240 
202 
244 
242 
244 
242 
244 
546 
44 
42 
42 
40 
42 
44 
44 
42 
222 
226 
244 
246 
240 
242 
242 
248 
220 
224 
242 
248 
224 
242 
246 
242 
242 
242 
244 
244 
244 
244 
242 
240 
332 
246 
206 
244 
244 
246 
242 
240 
540 
242 
224 
244 
244 
242 
240 
242 
242 
242 
246 
240 
244 
242 
244 
42 
42 
44 
40 
40 
42 
42 
244 
244 
242 
318 
240 
206 
240 
242 
244 
244 
246 
584 
244 
220 
242 
244 
244 
244 
244 
242 
240 
244 
242 
244 
240 
242 
244 
248 
250 
244 
242 
242 
238 
242 
242 
240 
270 
240 
226 
242 
244 
244 
240 
242 
464 
242 
222 
42 
40 
40 
40 
42 
40 
242 
242 
244 
242 
238 
246 
240 
242 
242 
204 
242 
244 
204 
242 
244 
240 
222 
248 
224 
242 
244 
240 
242 
244 
430 
244 
224 
242 
244 
240 
240 
242 
684 
240 
242 
244 
248 
242 
246 
246 
240 
244 
238 
244 
244 
244 
244 
42 
44 
42 
40 
42 
240 
246 
242 
242 
246 
422 
242 
220 
244 
244 
246 
244 
244 
628 
244 
222 
242 
244 
246 
244 
244 
244 
240 
240 
244 
244 
240 
242 
242 
244 
242 
242 
246 
242 
242 
246 
242 
244 
338 
242 
220 
240 
240 
242 
218 
246 
40 
42 
40 
44 
42 
244 
240 
246 
244 
244 
246 
244 
244 
240 
242 
244 
244 
246 
244 
244 
244 
240 
246 
240 
244 
318 
244 
220 
244 
204 
246 
246 
242 
568 
244 
222 
244 
244 
242 
240 
246 
246 
244 
244 
244 
242 
292 
240 
244 
246 
244 
240 
224 
40 
38 
44 
40 
40 
290 
42 
44 
42 
246 
242 
240 
240 
482 
240 
226 
228 
244 
246 
240 
240 
240 
242 
242 
246 
240 
244 
242 
246 
240 
242 
242 
242 
244 
242 
244 
242 
242 
230 
246 
224 
246 
198 
238 
238 
244 
454 
202 
224 
242 
244 
224 
242 
240 
684 
40 
42 
42 
40 
44 
40 
244 
246 
222 
242 
242 
240 
248 
240 
244 
242 
226 
242 
226 
240 
238 
242 
244 
242 
420 
240 
220 
244 
244 
244 
246 
244 
648 
240 
220 
204 
242 
246 
242 
240 
242 
242 
246 
246 
244 
242 
240 
242 
240 
242 
240 
242 
240 
42 
42 
42 
44 
40 
42 
42 
244 
240 
246 
246 
242 
580 
242 
224 
246 
240 
244 
212 
240 
242 
242 
202 
246 
238 
242 
244 
242 
244 
242 
238 
244 
242 
242 
242 
240 
246 
332 
242 
222 
236 
240 
244 
222 
236 
564 
242 
220 
248 
244 
244 
226 
246 
44 
42 
40 
42 
40 
240 
244 
246 
248 
242 
224 
240 
242 
246 
244 
242 
242 
234 
240 
220 
248 
244 
242 
242 
240 
476 
244 
222 
246 
244 
244 
238 
240 
702 
202 
246 
202 
240 
246 
246 
242 
242 
246 
246 
242 
242 
242 
244 
240 
244 
220 
238 
42 
44 
42 
42 
40 
44 
42 
244 
222 
242 
246 
246 
242 
244 
678 
242 
242 
242 
242 
242 
242 
244 
242 
222 
242 
246 
240 
244 
244 
242 
246 
222 
206 
220 
244 
242 
244 
242 
202 
408 
242 
220 
242 
242 
246 
242 
242 
620 
242 
220 
242 
240 
246 
244 
212 
246 
204 
222 
42 
42 
42 
42 
40 
40 
242 
244 
242 
242 
244 
238 
240 
244 
322 
244 
222 
244 
246 
246 
246 
242 
552 
240 
222 
242 
244 
242 
244 
244 
244 
242 
244 
238 
242 
242 
244 
202 
244 
244 
244 
242 
202 
246 
246 
244 
246 
340 
244 
220 
240 
240 
244 
40 
40 
44 
40 
42 
242 
244 
242 
242 
242 
218 
244 
242 
242 
242 
242 
244 
242 
246 
242 
248 
242 
244 
240 
244 
248 
242 
310 
242 
222 
248 
244 
244 
246 
244 
460 
246 
226 
244 
240 
244 
244 
238 
700 
244 
244 
246 
242 
240 
220 
244 
304 
242 
44 
42 
40 
42 
42 
246 
240 
238 
242 
224 
244 
226 
244 
244 
244 
458 
242 
222 
242 
242 
240 
244 
242 
684 
244 
242 
246 
240 
244 
244 
244 
242 
240 
244 
240 
244 
242 
244 
242 
242 
240 
242 
224 
240 
242 
244 
238 
224 
392 
246 
220 
40 
42 
40 
40 
40 
640 
246 
222 
242 
242 
244 
246 
240 
244 
246 
242 
242 
244 
242 
244 
238 
244 
196 
242 
222 
246 
246 
244 
238 
246 
338 
242 
222 
244 
242 
244 
242 
240 
562 
242 
224 
246 
244 
246 
238 
242 
248 
248 
244 
240 
242 
242 
246 
42 
42 
40 
44 
44 
246 
246 
244 
228 
244 
316 
246 
222 
244 
242 
246 
240 
244 
564 
238 
220 
244 
242 
244 
244 
246 
240 
200 
244 
246 
244 
244 
242 
244 
242 
242 
242 
242 
244 
242 
242 
244 
246 
230 
246 
224 
244 
242 
242 
242 
242 
466 
42 
42 
44 
42 
40 
40 
42 
696 
234 
244 
240 
244 
242 
242 
246 
242 
246 
242 
242 
244 
242 
242 
242 
244 
232 
242 
220 
206 
244 
242 
246 
244 
454 
242 
224 
240 
242 
214 
246 
244 
696 
240 
242 
240 
246 
244 
240 
240 
242 
244 
246 
240 
244 
244 
38 
40 
42 
40 
244 
222 
244 
244 
244 
242 
224 
396 
240 
226 
248 
244 
244 
202 
242 
622 
246 
222 
244 
240 
242 
244 
242 
204 
244 
242 
244 
244 
242 
246 
244 
246 
244 
242 
246 
244 
250 
240 
246 
240 
346 
240 
224 
242 
240 
240 
42 
42 
42 
40 
44 
40 
42 
44 
224 
240 
244 
240 
244 
224 
244 
244 
242 
244 
242 
242 
240 
242 
244 
244 
242 
222 
242 
328 
242 
224 
242 
244 
244 
244 
202 
570 
238 
222 
242 
242 
242 
244 
244 
244 
244 
242 
230 
242 
248 
242 
242 
242 
240 
240 
244 
42 
40 
40 
42 
40 
44 
222 
220 
246 
242 
250 
242 
242 
462 
244 
220 
242 
246 
244 
240 
244 
700 
244 
244 
238 
244 
242 
236 
242 
242 
242 
244 
238 
238 
242 
238 
248 
242 
222 
240 
200 
240 
240 
246 
244 
242 
472 
246 
226 
244 
244 
240 
44 
40 
42 
44 
40 
42 
244 
240 
246 
242 
244 
242 
242 
244 
246 
244 
242 
244 
240 
222 
246 
222 
242 
244 
242 
246 
242 
402 
242 
224 
246 
240 
240 
240 
242 
626 
242 
228 
244 
242 
246 
244 
242 
244 
242 
242 
244 
244 
242 
238 
242 
272 
144 
42 
44 
42 
40 
42 
238 
242 
354 
242 
222 
242 
244 
236 
240 
242 
594 
246 
224 
246 
238 
246 
244 
240 
240 
240 
242 
244 
242 
244 
242 
242 
242 
240 
244 
240 
242 
246 
244 
242 
244 
324 
246 
224 
242 
242 
244 
238 
240 
552 
240 
224 
244 
42 
40 
40 
40 
40 
42 
44 
42 
250 
240 
242 
240 
242 
240 
244 
244 
246 
240 
242 
242 
240 
238 
242 
224 
240 
242 
244 
244 
238 
476 
246 
222 
242 
238 
242 
242 
240 
700 
242 
242 
242 
242 
240 
244 
242 
242 
242 
240 
242 
238 
240 
244 
244 
242 
38 
42 
42 
242 
244 
244 
244 
242 
468 
242 
222 
240 
244 
242 
240 
242 
700 
242 
250 
240 
244 
242 
246 
246 
244 
244 
244 
240 
244 
242 
240 
246 
244 
238 
242 
222 
240 
246 
244 
244 
238 
386 
244 
224 
244 
242 
242 
246 
242 
608 
244 
224 
242 
250 
250 
224 
242 
240 
226 
206 
214 
206 
222 
240 
234 
242 
242 
224 
230 
222 
254 
204 
236 
224 
338 
204 
204 
244 
244 
250 
224 
246 
296 
202 
228 
222 
244 
204 
210 
202 
204 
836 
240 
246 
242 
200 
226 
242 
210 
240 
224 
220 
260 
228 
238 
226 
274 
572 
222 
204 
260 
212 
246 
258 
208 
480 
338 
228 
212 
390 
344 
228 
266 
258 
240 
258 
254 
240 
238 
210 
242 
238 
232 
244 
232 
256 
204 
334 
220 
266 
384 
252 
202 
230 
244 
242 
248 
204 
492 
246 
222 
240 
244 
224 
244 
244 
244 
242 
220 
244 
242 
220 
248 
238 
240 
246 
240 
244 
240 
242 
242 
226 
222 
226 
246 
224 
244 
222 
242 
244 
208 
476 
212 
220 
200 
246 
246 
244 
226 
700 
242 
246 
244 
240 
228 
248 
222 
240 
244 
242 
246 
242 
244 
244 
244 
240 
240 
244 
220 
204 
242 
240 
220 
242 
384 
242 
224 
222 
202 
240 
244 
220 
624 
244 
222 
238 
240 
244 
242 
240 
244 
224 
214 
220 
240 
240 
236 
242 
244 
242 
226 
220 
242 
236 
240 
242 
242 
354 
244 
224 
244 
244 
242 
242 
244 
594 
244 
222 
244 
240 
244 
238 
246 
244 
242 
244 
244 
242 
242 
240 
242 
242 
242 
246 
242 
246 
244 
244 
240 
244 
326 
242 
220 
242 
244 
238 
242 
244 
536 
240 
226 
246 
240 
244 
242 
242 
246 
248 
242 
244 
242 
244 
216 
208 
246 
242 
242 
242 
246 
244 
240 
244 
246 
262 
244 
226 
242 
242 
244 
242 
242 
472 
242 
222 
246 
242 
240 
244 
246 
240 
240 
244 
244 
240 
244 
246 
240 
248 
244 
242 
242 
242 
242 
240 
242 
244 
244 
240 
222 
244 
244 
244 
242 
242 
468 
244 
222 
242 
244 
242 
242 
244 
700 
246 
248 
242 
246 
244 
246 
242 
240 
248 
236 
244 
242 
244 
242 
244 
240 
246 
244 
228 
246 
240 
246 
