# FR-trace starting at Wed Dec 16 19:34:06 2020
################# CONFIG #################
# slot=10000
# samples=5000
# threshold=100
# idle=500
# minlen=500
# runs=60000
# pdathreads=3
# nmonitored=1
#   monitor0=/usr/local/lib/libcrypto.so 799838 0xc345e
# nevicted=0
# npdatargets=1
#   target0=/usr/local/lib/libcrypto.so 750148 0xb7244
# affinity=all
############## SYSTEM INFO ###############
# mastik_version=
# sysname=Linux
# nodename=5997f38f2dda
# release=5.4.0-56-generic
# version=#62-Ubuntu SMP Mon Nov 23 19:20:19 UTC 2020
# machine=x86_64
################## DATA ##################
# run=0
# datapoints=3160
56 
192 
222 
192 
222 
194 
224 
218 
218 
224 
196 
218 
226 
220 
212 
210 
210 
192 
192 
192 
192 
208 
192 
220 
218 
192 
210 
226 
54 
210 
220 
222 
56 
192 
220 
222 
56 
220 
220 
54 
222 
56 
220 
208 
54 
58 
218 
220 
224 
220 
192 
218 
192 
220 
220 
222 
192 
202 
190 
192 
222 
222 
218 
196 
192 
192 
218 
222 
222 
200 
218 
54 
192 
212 
192 
244 
194 
218 
202 
200 
192 
192 
192 
194 
224 
192 
224 
276 
192 
194 
192 
188 
210 
194 
192 
218 
214 
214 
220 
192 
192 
190 
218 
222 
220 
222 
212 
190 
474 
220 
192 
218 
190 
208 
234 
542 
222 
194 
220 
192 
204 
218 
344 
194 
222 
186 
208 
208 
56 
220 
222 
54 
218 
220 
54 
220 
56 
220 
218 
54 
220 
54 
218 
222 
54 
192 
222 
192 
192 
188 
194 
222 
194 
194 
222 
210 
192 
194 
224 
192 
192 
190 
208 
192 
194 
192 
192 
218 
222 
566 
194 
192 
278 
210 
302 
298 
192 
192 
320 
206 
212 
202 
292 
192 
242 
346 
220 
192 
220 
222 
208 
218 
196 
220 
190 
196 
228 
212 
220 
370 
210 
224 
222 
222 
192 
220 
218 
222 
222 
188 
218 
196 
216 
192 
222 
190 
192 
228 
212 
194 
224 
192 
224 
190 
208 
58 
238 
218 
56 
208 
54 
284 
208 
58 
218 
56 
220 
220 
52 
194 
192 
282 
218 
216 
222 
206 
210 
222 
250 
222 
220 
218 
220 
192 
196 
430 
192 
208 
220 
220 
190 
206 
250 
192 
218 
186 
192 
192 
190 
248 
220 
194 
192 
188 
192 
236 
268 
198 
192 
208 
190 
192 
220 
378 
192 
210 
202 
222 
220 
228 
262 
222 
194 
188 
214 
192 
222 
276 
220 
220 
220 
220 
192 
222 
284 
192 
192 
226 
222 
206 
218 
482 
192 
222 
192 
192 
202 
220 
302 
192 
220 
58 
222 
210 
54 
332 
58 
234 
208 
56 
194 
54 
316 
220 
56 
218 
220 
58 
220 
54 
192 
234 
194 
218 
208 
192 
422 
190 
220 
240 
220 
190 
220 
546 
192 
220 
192 
188 
192 
222 
464 
222 
220 
220 
192 
212 
214 
372 
222 
194 
216 
230 
194 
232 
410 
192 
214 
220 
196 
196 
228 
586 
208 
212 
194 
198 
212 
192 
494 
220 
194 
218 
220 
208 
196 
406 
192 
220 
192 
222 
208 
188 
444 
222 
222 
222 
222 
218 
192 
476 
216 
192 
224 
220 
226 
218 
456 
226 
224 
218 
222 
192 
56 
410 
62 
220 
220 
54 
220 
56 
440 
194 
54 
194 
58 
190 
212 
462 
236 
220 
192 
220 
192 
218 
454 
224 
192 
224 
220 
194 
222 
534 
192 
190 
226 
220 
194 
192 
658 
228 
210 
220 
220 
222 
192 
490 
220 
222 
220 
222 
220 
222 
490 
230 
190 
218 
220 
214 
220 
738 
220 
194 
194 
224 
256 
192 
510 
224 
204 
220 
218 
192 
218 
1010 
222 
220 
224 
192 
226 
194 
576 
242 
192 
222 
194 
220 
220 
578 
218 
220 
218 
224 
220 
220 
540 
218 
218 
56 
220 
56 
222 
574 
52 
220 
220 
56 
220 
58 
550 
220 
54 
220 
236 
248 
194 
192 
208 
186 
208 
222 
224 
192 
952 
222 
220 
222 
220 
192 
220 
744 
222 
220 
220 
220 
200 
220 
604 
218 
194 
218 
192 
196 
218 
602 
220 
208 
224 
222 
222 
190 
588 
224 
194 
220 
220 
220 
224 
582 
224 
222 
192 
222 
192 
216 
626 
190 
198 
216 
200 
236 
190 
692 
214 
196 
192 
212 
194 
222 
714 
220 
194 
190 
220 
192 
188 
622 
194 
192 
194 
194 
192 
192 
54 
220 
224 
56 
222 
112 
222 
670 
52 
222 
220 
54 
220 
54 
670 
220 
56 
224 
56 
226 
220 
52 
210 
58 
210 
386 
194 
206 
192 
210 
220 
194 
222 
222 
192 
710 
220 
192 
224 
220 
220 
192 
196 
202 
218 
222 
222 
192 
204 
220 
192 
218 
222 
220 
198 
220 
204 
192 
220 
198 
192 
218 
220 
220 
192 
220 
192 
196 
218 
222 
220 
196 
222 
190 
222 
192 
192 
208 
216 
210 
204 
208 
228 
220 
202 
220 
222 
190 
188 
192 
210 
220 
206 
220 
220 
222 
222 
192 
192 
208 
194 
222 
192 
222 
192 
192 
56 
226 
220 
58 
218 
50 
222 
220 
54 
218 
110 
220 
220 
58 
192 
192 
218 
218 
192 
208 
192 
188 
190 
192 
196 
216 
194 
196 
218 
218 
222 
218 
220 
208 
192 
222 
214 
284 
224 
196 
210 
194 
194 
192 
220 
222 
222 
192 
222 
194 
192 
192 
218 
190 
230 
220 
220 
210 
220 
224 
192 
192 
194 
218 
196 
220 
202 
196 
222 
218 
192 
192 
194 
192 
208 
214 
222 
194 
218 
192 
240 
228 
220 
222 
218 
222 
222 
224 
226 
222 
220 
192 
190 
194 
220 
220 
56 
218 
222 
56 
222 
54 
222 
226 
58 
220 
56 
220 
222 
56 
222 
222 
194 
190 
220 
192 
220 
230 
192 
206 
196 
202 
194 
194 
210 
210 
192 
192 
222 
222 
222 
192 
222 
222 
220 
218 
54 
212 
222 
220 
220 
192 
216 
220 
226 
224 
220 
212 
190 
194 
198 
192 
218 
192 
192 
190 
206 
208 
188 
192 
208 
222 
192 
224 
218 
222 
222 
192 
218 
198 
208 
218 
190 
210 
220 
234 
194 
192 
192 
210 
210 
192 
224 
212 
220 
192 
198 
220 
220 
222 
194 
224 
56 
218 
56 
198 
380 
56 
218 
54 
222 
220 
56 
192 
218 
200 
192 
222 
220 
218 
224 
192 
220 
222 
194 
212 
242 
220 
192 
218 
220 
192 
220 
208 
192 
194 
192 
192 
192 
196 
200 
218 
192 
218 
242 
192 
192 
220 
218 
192 
224 
220 
192 
220 
220 
192 
222 
192 
196 
218 
192 
192 
220 
192 
210 
224 
220 
224 
238 
218 
192 
220 
222 
220 
192 
202 
222 
192 
200 
222 
194 
240 
218 
210 
210 
228 
208 
192 
210 
208 
192 
254 
198 
246 
54 
208 
54 
220 
222 
52 
220 
218 
54 
220 
56 
222 
224 
56 
222 
210 
56 
218 
56 
224 
220 
56 
210 
56 
220 
194 
222 
212 
218 
192 
222 
220 
194 
192 
220 
192 
226 
194 
218 
242 
220 
190 
198 
208 
210 
192 
208 
194 
194 
222 
346 
190 
194 
202 
230 
220 
224 
192 
222 
192 
220 
218 
192 
190 
210 
192 
192 
220 
222 
224 
188 
192 
222 
194 
220 
242 
194 
218 
208 
220 
190 
218 
208 
206 
222 
218 
220 
192 
194 
222 
214 
194 
192 
222 
198 
208 
194 
220 
192 
198 
220 
204 
192 
192 
192 
192 
190 
56 
222 
54 
220 
218 
56 
210 
54 
218 
222 
58 
216 
224 
54 
220 
192 
218 
190 
218 
192 
210 
190 
236 
210 
192 
192 
194 
194 
192 
192 
222 
222 
220 
220 
208 
192 
192 
208 
200 
196 
210 
268 
210 
194 
222 
222 
222 
208 
190 
216 
190 
220 
222 
236 
194 
210 
222 
246 
220 
220 
222 
222 
192 
192 
192 
216 
220 
222 
222 
210 
200 
234 
220 
206 
220 
224 
212 
200 
350 
224 
190 
222 
192 
210 
220 
320 
222 
232 
192 
212 
192 
240 
300 
210 
194 
58 
224 
54 
218 
404 
54 
220 
56 
218 
214 
56 
218 
58 
218 
202 
220 
212 
220 
368 
220 
222 
220 
194 
214 
192 
340 
192 
226 
234 
222 
208 
220 
216 
196 
220 
194 
220 
214 
190 
220 
228 
230 
206 
222 
190 
196 
456 
236 
210 
214 
200 
210 
218 
370 
220 
222 
194 
220 
210 
190 
320 
218 
192 
222 
224 
208 
198 
424 
192 
194 
194 
202 
192 
222 
418 
192 
196 
222 
218 
210 
220 
236 
190 
204 
220 
220 
208 
222 
450 
198 
196 
220 
0 
0 
0 
222 
52 
212 
206 
54 
208 
58 
246 
210 
52 
222 
56 
208 
218 
54 
218 
52 
218 
190 
52 
214 
54 
220 
220 
222 
190 
188 
220 
340 
186 
218 
192 
192 
190 
220 
584 
190 
234 
192 
190 
208 
232 
328 
188 
218 
220 
220 
208 
218 
330 
190 
192 
208 
198 
190 
208 
368 
194 
218 
218 
218 
190 
188 
402 
190 
190 
218 
218 
206 
188 
394 
216 
192 
190 
218 
206 
216 
386 
192 
208 
190 
192 
356 
188 
366 
198 
216 
190 
216 
206 
220 
396 
208 
218 
192 
218 
206 
240 
572 
188 
190 
186 
50 
200 
212 
52 
202 
56 
186 
56 
228 
264 
56 
216 
54 
314 
218 
208 
218 
412 
216 
192 
218 
202 
210 
186 
548 
190 
186 
196 
222 
190 
218 
624 
218 
218 
218 
192 
198 
218 
472 
218 
188 
192 
188 
190 
190 
588 
188 
222 
218 
188 
192 
230 
490 
186 
190 
218 
190 
206 
190 
190 
218 
220 
218 
188 
192 
218 
692 
220 
218 
220 
196 
188 
218 
702 
218 
218 
192 
186 
232 
190 
496 
220 
206 
190 
222 
190 
198 
626 
220 
220 
190 
220 
220 
220 
54 
218 
50 
220 
216 
56 
218 
50 
208 
218 
0 
190 
54 
254 
586 
212 
216 
206 
190 
208 
216 
562 
220 
190 
188 
190 
220 
218 
630 
216 
188 
190 
190 
222 
210 
558 
216 
224 
0 
0 
0 
192 
526 
192 
228 
220 
192 
194 
192 
536 
206 
220 
192 
192 
200 
222 
630 
192 
224 
192 
218 
192 
194 
742 
210 
206 
188 
192 
190 
220 
564 
220 
220 
192 
220 
218 
226 
192 
222 
222 
220 
218 
194 
218 
692 
222 
218 
220 
192 
192 
222 
588 
222 
222 
214 
218 
194 
190 
606 
218 
56 
222 
56 
222 
220 
56 
222 
56 
222 
224 
58 
220 
56 
208 
192 
208 
238 
196 
218 
638 
196 
300 
192 
192 
222 
192 
694 
210 
218 
192 
194 
192 
222 
670 
192 
192 
218 
222 
220 
220 
192 
220 
220 
222 
198 
222 
218 
676 
222 
232 
194 
218 
214 
220 
708 
220 
200 
218 
190 
220 
238 
194 
216 
192 
212 
208 
212 
212 
196 
194 
218 
190 
222 
192 
222 
720 
210 
224 
192 
190 
192 
226 
250 
192 
218 
218 
220 
204 
192 
698 
210 
192 
224 
222 
56 
222 
708 
58 
224 
218 
58 
226 
56 
702 
220 
56 
222 
218 
56 
220 
218 
202 
188 
220 
192 
220 
210 
224 
198 
240 
192 
228 
192 
200 
192 
192 
218 
224 
190 
222 
212 
220 
188 
220 
222 
220 
192 
220 
190 
228 
222 
222 
222 
222 
218 
222 
192 
210 
192 
194 
192 
226 
192 
192 
216 
190 
222 
220 
192 
212 
194 
220 
192 
220 
192 
210 
210 
194 
218 
204 
210 
192 
190 
220 
192 
192 
218 
194 
196 
192 
192 
194 
218 
220 
224 
190 
220 
192 
222 
54 
218 
54 
220 
220 
54 
222 
56 
224 
222 
56 
220 
222 
58 
222 
218 
204 
220 
220 
218 
192 
192 
222 
194 
220 
224 
248 
206 
192 
218 
192 
212 
208 
214 
212 
248 
192 
190 
192 
194 
224 
220 
192 
220 
192 
208 
194 
224 
198 
220 
194 
238 
190 
200 
224 
222 
222 
222 
190 
192 
220 
220 
214 
192 
192 
192 
192 
210 
222 
238 
222 
224 
218 
222 
192 
188 
194 
222 
202 
194 
192 
206 
210 
192 
196 
214 
194 
194 
208 
192 
218 
194 
192 
206 
198 
220 
52 
220 
58 
224 
662 
54 
222 
54 
220 
220 
54 
224 
56 
220 
188 
222 
192 
202 
224 
210 
192 
210 
190 
222 
190 
192 
218 
210 
220 
222 
190 
220 
194 
220 
194 
218 
220 
226 
212 
192 
208 
198 
212 
220 
220 
218 
220 
194 
224 
192 
222 
190 
218 
218 
208 
220 
194 
218 
192 
222 
224 
222 
220 
192 
220 
220 
190 
226 
224 
218 
218 
192 
192 
194 
222 
222 
190 
208 
194 
192 
190 
194 
220 
220 
212 
192 
194 
192 
216 
190 
192 
194 
192 
222 
220 
54 
222 
54 
220 
222 
54 
220 
78 
58 
220 
56 
218 
220 
54 
220 
184 
192 
220 
220 
192 
192 
196 
192 
192 
192 
222 
220 
188 
196 
192 
198 
190 
256 
192 
198 
192 
218 
192 
220 
240 
208 
220 
202 
196 
222 
224 
238 
218 
194 
218 
254 
208 
190 
192 
228 
192 
244 
190 
210 
226 
220 
188 
220 
192 
220 
210 
220 
222 
222 
222 
218 
192 
190 
214 
224 
190 
224 
222 
220 
192 
222 
218 
220 
192 
220 
236 
192 
192 
222 
218 
222 
222 
192 
210 
192 
190 
54 
208 
208 
56 
210 
56 
218 
220 
56 
220 
56 
208 
222 
56 
220 
220 
58 
222 
212 
220 
190 
222 
218 
218 
194 
204 
196 
226 
222 
190 
192 
220 
210 
218 
254 
220 
218 
222 
192 
210 
192 
220 
224 
190 
218 
194 
192 
192 
190 
224 
192 
190 
230 
208 
222 
218 
232 
192 
220 
210 
200 
192 
470 
218 
188 
218 
220 
208 
192 
194 
220 
198 
224 
222 
192 
220 
232 
222 
220 
194 
192 
208 
218 
290 
192 
194 
192 
194 
192 
192 
332 
226 
192 
220 
194 
208 
192 
214 
162 
212 
210 
54 
210 
206 
52 
196 
56 
280 
222 
54 
222 
56 
220 
218 
54 
222 
54 
208 
192 
192 
192 
194 
218 
196 
192 
188 
226 
190 
192 
192 
210 
192 
192 
222 
192 
222 
246 
210 
220 
260 
220 
190 
186 
204 
194 
218 
362 
216 
244 
194 
212 
210 
192 
192 
220 
210 
210 
230 
212 
216 
192 
218 
190 
192 
222 
194 
238 
194 
192 
222 
192 
218 
212 
218 
192 
204 
222 
218 
192 
190 
218 
198 
218 
216 
208 
192 
192 
192 
196 
192 
220 
192 
210 
210 
218 
200 
196 
226 
220 
220 
210 
52 
208 
54 
222 
192 
54 
194 
54 
318 
222 
56 
220 
222 
56 
222 
326 
192 
192 
220 
220 
208 
220 
224 
212 
220 
222 
192 
196 
222 
260 
218 
222 
194 
190 
192 
222 
600 
212 
220 
190 
222 
216 
222 
402 
204 
220 
222 
198 
194 
192 
308 
222 
192 
196 
240 
238 
202 
270 
214 
210 
222 
192 
204 
222 
516 
186 
222 
222 
220 
214 
192 
296 
216 
222 
222 
192 
210 
224 
316 
194 
222 
194 
220 
190 
192 
332 
198 
230 
212 
222 
210 
220 
540 
190 
222 
56 
222 
210 
56 
518 
218 
56 
220 
54 
192 
192 
54 
192 
54 
192 
226 
212 
220 
414 
192 
212 
220 
222 
194 
192 
592 
192 
190 
212 
206 
194 
192 
426 
222 
192 
224 
190 
208 
192 
342 
222 
222 
190 
192 
208 
192 
334 
196 
192 
192 
192 
192 
232 
850 
194 
192 
218 
192 
208 
208 
378 
222 
218 
190 
316 
190 
200 
772 
196 
204 
192 
222 
200 
194 
396 
206 
220 
218 
218 
196 
214 
552 
220 
220 
224 
206 
216 
220 
624 
222 
194 
204 
220 
192 
194 
56 
220 
54 
222 
222 
54 
220 
430 
56 
218 
58 
220 
222 
62 
698 
196 
190 
196 
218 
196 
192 
476 
194 
194 
222 
238 
226 
192 
610 
220 
222 
222 
192 
194 
222 
648 
218 
222 
200 
192 
222 
194 
474 
224 
222 
216 
192 
194 
198 
666 
202 
222 
188 
230 
190 
218 
484 
218 
192 
192 
190 
216 
192 
608 
220 
188 
220 
190 
196 
220 
554 
196 
192 
220 
196 
192 
218 
540 
222 
190 
218 
218 
220 
220 
668 
190 
222 
204 
186 
194 
208 
510 
222 
194 
222 
56 
220 
56 
552 
220 
58 
222 
218 
56 
222 
56 
226 
220 
56 
226 
222 
204 
528 
222 
218 
192 
220 
218 
192 
710 
208 
194 
198 
240 
244 
192 
192 
206 
220 
192 
220 
208 
192 
194 
192 
218 
194 
212 
192 
220 
608 
192 
220 
220 
224 
220 
192 
714 
220 
226 
220 
220 
214 
194 
616 
220 
192 
208 
218 
224 
222 
192 
194 
192 
214 
220 
234 
218 
190 
192 
202 
192 
210 
254 
204 
676 
282 
232 
196 
194 
212 
198 
634 
218 
192 
218 
222 
190 
218 
192 
222 
216 
56 
220 
222 
60 
674 
54 
192 
192 
192 
220 
192 
196 
216 
222 
210 
222 
238 
220 
676 
222 
218 
226 
190 
192 
190 
188 
220 
192 
208 
192 
202 
296 
192 
300 
190 
192 
218 
194 
222 
194 
222 
196 
196 
218 
208 
212 
670 
202 
222 
222 
192 
222 
192 
192 
222 
220 
192 
192 
196 
214 
192 
224 
210 
222 
212 
220 
220 
700 
196 
220 
192 
224 
220 
220 
194 
218 
196 
226 
220 
190 
192 
190 
212 
210 
246 
194 
192 
190 
238 
220 
220 
222 
220 
218 
220 
230 
218 
220 
220 
218 
218 
216 
218 
220 
220 
220 
220 
220 
218 
218 
206 
218 
210 
220 
220 
220 
220 
220 
220 
198 
222 
222 
220 
218 
220 
216 
222 
222 
224 
220 
208 
208 
210 
220 
232 
210 
208 
294 
208 
278 
216 
222 
222 
222 
322 
196 
240 
210 
220 
220 
208 
220 
194 
218 
270 
220 
214 
282 
230 
218 
222 
222 
190 
194 
218 
192 
220 
216 
226 
222 
192 
222 
306 
220 
220 
218 
220 
222 
222 
212 
226 
222 
192 
224 
188 
194 
198 
222 
220 
220 
218 
210 
196 
212 
192 
218 
224 
226 
220 
220 
220 
220 
222 
194 
218 
220 
224 
218 
218 
222 
226 
220 
220 
218 
222 
222 
220 
224 
218 
220 
208 
220 
222 
222 
218 
222 
218 
208 
222 
222 
218 
218 
224 
196 
210 
192 
192 
208 
196 
224 
218 
220 
218 
224 
220 
218 
218 
220 
220 
222 
220 
210 
222 
220 
218 
202 
222 
208 
200 
214 
210 
220 
220 
218 
208 
324 
208 
192 
214 
192 
214 
194 
222 
226 
190 
224 
198 
220 
220 
196 
222 
220 
212 
214 
212 
210 
192 
212 
210 
216 
216 
220 
220 
224 
214 
218 
220 
220 
210 
336 
220 
218 
220 
220 
220 
238 
188 
258 
222 
222 
220 
212 
216 
190 
190 
268 
192 
222 
220 
194 
464 
216 
222 
300 
222 
218 
192 
222 
208 
218 
194 
222 
208 
208 
218 
192 
212 
216 
220 
214 
194 
212 
326 
220 
210 
220 
228 
212 
210 
194 
220 
220 
222 
192 
200 
192 
210 
210 
236 
192 
208 
220 
220 
220 
222 
238 
214 
208 
208 
216 
192 
212 
220 
220 
218 
220 
220 
220 
208 
222 
212 
212 
220 
220 
210 
194 
192 
208 
192 
220 
210 
268 
192 
220 
308 
208 
222 
222 
216 
192 
210 
210 
210 
192 
220 
220 
220 
222 
218 
208 
210 
192 
194 
208 
220 
222 
210 
222 
192 
240 
218 
222 
192 
214 
222 
210 
220 
220 
190 
220 
212 
194 
202 
220 
222 
220 
214 
216 
218 
192 
192 
208 
240 
210 
214 
192 
582 
204 
220 
218 
222 
208 
220 
220 
218 
218 
220 
222 
212 
190 
216 
208 
218 
192 
220 
208 
220 
238 
214 
224 
212 
220 
306 
194 
224 
222 
222 
220 
222 
208 
222 
206 
194 
210 
224 
200 
214 
208 
220 
236 
332 
194 
192 
212 
214 
222 
220 
342 
220 
220 
210 
210 
696 
224 
220 
190 
